\beamer@endinputifotherversion {3.26pt}
\headcommand {\slideentry {0}{0}{1}{1/1}{}{0}}
\headcommand {\beamer@framepages {1}{1}}
\headcommand {\slideentry {0}{0}{2}{2/2}{}{0}}
\headcommand {\beamer@framepages {2}{2}}
\headcommand {\slideentry {0}{0}{3}{3/3}{}{0}}
\headcommand {\beamer@framepages {3}{3}}
\headcommand {\slideentry {0}{0}{4}{4/4}{}{0}}
\headcommand {\beamer@framepages {4}{4}}
\headcommand {\slideentry {0}{0}{5}{5/7}{}{0}}
\headcommand {\beamer@framepages {5}{7}}
\headcommand {\slideentry {0}{0}{6}{8/13}{}{0}}
\headcommand {\beamer@framepages {8}{13}}
\headcommand {\slideentry {0}{0}{7}{14/16}{}{0}}
\headcommand {\beamer@framepages {14}{16}}
\headcommand {\slideentry {0}{0}{8}{17/20}{}{0}}
\headcommand {\beamer@framepages {17}{20}}
\headcommand {\slideentry {0}{0}{9}{21/25}{}{0}}
\headcommand {\beamer@framepages {21}{25}}
\headcommand {\slideentry {0}{0}{10}{26/28}{}{0}}
\headcommand {\beamer@framepages {26}{28}}
\headcommand {\slideentry {0}{0}{11}{29/33}{}{0}}
\headcommand {\beamer@framepages {29}{33}}
\headcommand {\slideentry {0}{0}{12}{34/39}{}{0}}
\headcommand {\beamer@framepages {34}{39}}
\headcommand {\slideentry {0}{0}{13}{40/44}{}{0}}
\headcommand {\beamer@framepages {40}{44}}
\headcommand {\slideentry {0}{0}{14}{45/45}{}{0}}
\headcommand {\beamer@framepages {45}{45}}
\headcommand {\beamer@partpages {1}{45}}
\headcommand {\beamer@subsectionpages {1}{45}}
\headcommand {\beamer@sectionpages {1}{45}}
\headcommand {\beamer@documentpages {45}}
\headcommand {\def \inserttotalframenumber {14}}
